<svg width="150" height="150" viewBox="0 0 150 150" fill="none" xmlns="http://www.w3.org/2000/svg">
<circle cx="75" cy="75" r="75" fill="#F2FAE2"/>
<path d="M67.6138 88.2438L55.4521 76.0821L50.23 81.3043L67.6138 98.6881L103.464 62.8384L98.2413 57.6162L67.6138 88.2438Z" fill="#4FA800"/>
</svg>
